[
  {
    "_id": "5820d72fc1c8804cba00ec7d",
    "index": 0,
    "guid": "0d20b653-2e2f-4e4c-aa22-aeccc2985304",
    "isActive": true,
    "balance": "$3,686.65",
    "picture": "http://i.pravatar.cc/100",
    "age": 40,
    "eyeColor": "green",
    "name": "Nash Herman",
    "gender": "male",
    "company": "VORTEXACO",
    "email": "nashherman@vortexaco.com",
    "phone": "+1 (846) 425-3538",
    "address": "604 Hemlock Street, Ticonderoga, Georgia, 7713",
    "about": "Sunt ea enim minim voluptate eu id eiusmod tempor aute. Minim fugiat ea laboris ullamco et esse commodo Lorem non et id commodo nisi. Proident nisi in cillum cupidatat.\r\n",
    "registered": "2014-01-22T09:04:45 -01:00",
    "latitude": -73.751829,
    "longitude": 106.374015,
    "tags": [
      "fugiat",
      "labore",
      "reprehenderit",
      "esse",
      "fugiat",
      "culpa",
      "ut"
    ],
    "friends": [
      {
        "id": 0,
        "name": "Matilda Frost"
      },
      {
        "id": 1,
        "name": "Brigitte Cooper"
      },
      {
        "id": 2,
        "name": "Mcgowan Leach"
      }
    ],
    "greeting": "Hello, Nash Herman! You have 5 unread messages.",
    "favoriteFruit": "strawberry"
  },
  {
    "_id": "5820d72ff8a22b8658cec7ed",
    "index": 1,
    "guid": "ffafa584-8dd6-4062-937a-a833197fcebb",
    "isActive": false,
    "balance": "$2,583.48",
    "picture": "http://i.pravatar.cc/100",
    "age": 34,
    "eyeColor": "green",
    "name": "Pittman Aguirre",
    "gender": "male",
    "company": "COGNICODE",
    "email": "pittmanaguirre@cognicode.com",
    "phone": "+1 (842) 499-2171",
    "address": "381 Clara Street, Edgewater, Kansas, 8219",
    "about": "Duis ex est ad veniam. Duis ullamco incididunt tempor non incididunt occaecat adipisicing proident consequat commodo nisi. Ad labore aliqua ut sint veniam proident voluptate excepteur proident culpa commodo ea. Et duis est esse eu. Enim veniam aliqua minim id elit nulla Lorem occaecat duis ad mollit duis ut. Incididunt ex occaecat mollit nulla nisi commodo excepteur non aliquip magna mollit proident magna. Est velit labore officia nulla nulla occaecat.\r\n",
    "registered": "2016-04-28T12:58:28 -02:00",
    "latitude": 53.157408,
    "longitude": -65.537753,
    "tags": [
      "eu",
      "est",
      "quis",
      "fugiat",
      "pariatur",
      "in",
      "ipsum"
    ],
    "friends": [
      {
        "id": 0,
        "name": "Vicky Bonner"
      },
      {
        "id": 1,
        "name": "Rice Browning"
      },
      {
        "id": 2,
        "name": "Rodgers Cochran"
      }
    ],
    "greeting": "Hello, Pittman Aguirre! You have 2 unread messages.",
    "favoriteFruit": "strawberry"
  },
  {
    "_id": "5820d72fa0b179483871efbd",
    "index": 2,
    "guid": "15fe66e9-256c-4012-b46c-8aac30646c56",
    "isActive": true,
    "balance": "$3,380.10",
    "picture": "http://i.pravatar.cc/100",
    "age": 27,
    "eyeColor": "green",
    "name": "Jan Boyle",
    "gender": "female",
    "company": "IMAGEFLOW",
    "email": "janboyle@imageflow.com",
    "phone": "+1 (944) 550-3929",
    "address": "604 Stryker Court, Muir, Oregon, 1877",
    "about": "Est culpa elit magna officia pariatur ex duis non. Veniam voluptate duis do amet esse irure voluptate minim eiusmod minim elit aliquip. Voluptate dolor laborum incididunt proident fugiat nulla.\r\n",
    "registered": "2016-10-03T09:53:30 -02:00",
    "latitude": 80.948969,
    "longitude": -88.752458,
    "tags": [
      "aute",
      "ipsum",
      "anim",
      "aliquip",
      "non",
      "consectetur",
      "qui"
    ],
    "friends": [
      {
        "id": 0,
        "name": "Lilian Dalton"
      },
      {
        "id": 1,
        "name": "Coleman Dudley"
      },
      {
        "id": 2,
        "name": "Lynette Stokes"
      }
    ],
    "greeting": "Hello, Jan Boyle! You have 8 unread messages.",
    "favoriteFruit": "apple"
  },
  {
    "_id": "5820d72f2df9fa2bacdd4ed2",
    "index": 3,
    "guid": "b1bb6b19-1340-4cd0-9232-a0140cc9f98b",
    "isActive": true,
    "balance": "$1,982.39",
    "picture": "http://i.pravatar.cc/100",
    "age": 22,
    "eyeColor": "blue",
    "name": "Beatrice Pruitt",
    "gender": "female",
    "company": "CUBICIDE",
    "email": "beatricepruitt@cubicide.com",
    "phone": "+1 (884) 450-3880",
    "address": "289 Joval Court, Haring, District Of Columbia, 3178",
    "about": "Lorem sint officia deserunt quis exercitation sint fugiat qui sunt exercitation consequat ad velit consectetur. Dolor nostrud sunt cillum qui fugiat ad ipsum minim commodo nostrud excepteur consequat. Eu id cillum incididunt pariatur ipsum deserunt aute deserunt. Incididunt quis commodo nulla commodo cupidatat irure velit tempor reprehenderit sunt anim laborum aliquip quis. Fugiat officia ullamco excepteur voluptate aute sunt velit sunt incididunt aute aliqua nisi ullamco sunt.\r\n",
    "registered": "2014-12-15T06:55:41 -01:00",
    "latitude": -53.745488,
    "longitude": -147.514581,
    "tags": [
      "nostrud",
      "est",
      "ad",
      "dolore",
      "labore",
      "dolor",
      "eiusmod"
    ],
    "friends": [
      {
        "id": 0,
        "name": "Nadine Shannon"
      },
      {
        "id": 1,
        "name": "Vilma Haney"
      },
      {
        "id": 2,
        "name": "Dianna Dejesus"
      }
    ],
    "greeting": "Hello, Beatrice Pruitt! You have 5 unread messages.",
    "favoriteFruit": "banana"
  },
  {
    "_id": "5820d72ff0b0314ed186fc64",
    "index": 4,
    "guid": "adcfc560-4981-49ae-858a-6b4e3e7babc2",
    "isActive": true,
    "balance": "$1,096.83",
    "picture": "http://i.pravatar.cc/100",
    "age": 21,
    "eyeColor": "blue",
    "name": "Ortiz Bullock",
    "gender": "male",
    "company": "ENDIPIN",
    "email": "ortizbullock@endipin.com",
    "phone": "+1 (959) 452-3160",
    "address": "934 Dumont Avenue, Limestone, Pennsylvania, 4569",
    "about": "Nostrud ut est magna magna eu elit dolore tempor tempor ex ut id. Nulla nisi enim enim incididunt aute sit. Fugiat sit sit quis proident excepteur ut sunt sit sint.\r\n",
    "registered": "2016-07-22T03:10:47 -02:00",
    "latitude": 84.21357,
    "longitude": 24.678146,
    "tags": [
      "ullamco",
      "ipsum",
      "laborum",
      "nisi",
      "consectetur",
      "ipsum",
      "labore"
    ],
    "friends": [
      {
        "id": 0,
        "name": "Kirby Miranda"
      },
      {
        "id": 1,
        "name": "Ida Horne"
      },
      {
        "id": 2,
        "name": "Wendi Massey"
      }
    ],
    "greeting": "Hello, Ortiz Bullock! You have 3 unread messages.",
    "favoriteFruit": "strawberry"
  }
]